Sequence Summarization Plots • ggseqplot
…
dplot <- ggseqdplot(actcal.seq)
dplot$data
#> # A tibble: 48 x 6
#>    group state      k     x     value grouplab           
#>    <dbl> <fct>      <fct> <fct> <dbl> <glue>             
#>  1     1 > 37 hours jan00 1     0.421 Rel. Freq. (n=2000)
#>  2     1 > 37 hours feb00 2     0.420 Rel. Freq. (n=2000)
#>  3     1 > 37 hours mar00 3     0.422 Rel. Freq. (n=2000)
#>  4     1 > 37 hours apr00 4     0.418 Rel. Freq. (n=2000)
#>  5     1 > 37 hours may00 5     0.420 Rel. Freq. (n=2000)
#>  6     1 > 37 hours jun00 6     0.42  Rel. Freq. (n=2000)
#>  7     1 > 37 hours jul00 7     0.422 Rel. Freq. (n=2000)
#>  8     1 > 37 hours aug00 8     0.420 Rel. Freq. (n=2000)
#>  9     1 > 37 hours sep00 9     0.418 Rel. Freq. (n=2000)
#> 10     1 > 37 hours oct00 10    0.418 Rel. Freq. (n=2000)
#> # ... with 38 more rows
…
